{"userinfo": {"username": "wukong", "age": "21", "language": "en", "session_id": null, "guest_session_id": "eb9df58f3cc3fa934736050bdb437243", "expires_at": "2020-11-01 01:39:47 UTC"}, "browser_status": {"movieSource": "byGenere", "lastMovieId": null, "lastGenreText": "i want to watch love movies"}, "favorite_list": {}, "movieList": {"total_results": 10000, "page": 1, "total_pages": 500, "results": [{"vote_average": 6.4, "id": 340102, "overview": "\u3000\u3000\u5f53\u4e94\u4f4d\u62e5\u6709\u7279\u6b8a\u80fd\u529b\u7684\u9752\u5c11\u5e74\u88ab\u5173\u5165\u79d8\u5bc6\u673a\u6784\uff0c\u6709\u4e00\u80a1\u8d85\u81ea\u7136\u6076\u52bf\u529b\u6b63\u8822\u8822\u6b32\u52a8\uff0c\u4ed6\u4eec\u5fc5\u987b\u9762\u5bf9\u8fc7\u53bb\u7684\u7f6a\u6076\uff0c\u4f46\u5185\u5fc3\u7684\u6050\u60e7\u5373\u5c06\u6210\u771f\u3002\u795e\u79d8\u7684\u80cc\u540e\u4f3c\u4e4e\u6709\u5de8\u5927\u7684\u9634\u8c0b\u6b63\u5728\u6210\u5f62\uff0c\u4ed6\u4eec\u662f\u5426\u80fd\u52c7\u6562\u5bf9\u6297\u81ea\u8eab\u7684\u529b\u91cf\uff0c\u9003\u8131\u8fd9\u4e00\u5207\u67b7\u9501\u2026\u2026", "release_date": "2020-08-26", "popularity": 462.092, "adult": false, "backdrop_path": "/eCIvqa3QVCx6H09bdeOS8Al2Sqy.jpg", "genre_ids": [28, 878, 27, 12], "vote_count": 847, "original_language": "en", "original_title": "The New Mutants", "poster_path": "/8puhf8k4uA0zcBA8MEQ6OdNeYn3.jpg", "title": "X\u6218\u8b66\uff1a\u65b0\u53d8\u79cd\u4eba", "video": false}, {"vote_average": 7.5, "id": 732670, "overview": "", "release_date": "2020-11-17", "popularity": 328.57, "adult": false, "backdrop_path": "/1Lhc32P0a62BgMFgd20wXR1osR3.jpg", "genre_ids": [16, 12, 35, 10751, 878], "vote_count": 38, "original_language": "en", "original_title": "The Lego Star Wars Holiday Special", "title": "The Lego Star Wars Holiday Special", "poster_path": "/zyzJSI7UZZzz5Toj10rYGF5689z.jpg", "video": false}, {"vote_average": 7.4, "id": 594328, "overview": "\u8fea\u58eb\u5c3c\u6253\u9020\u5168\u65b0\u539f\u521b\u5f71\u7247\u300a\u98de\u54e5\u4e0e\u5c0f\u4f5b\u5927\u7535\u5f71\uff1a\u574e\u8fea\u65af\u5bf9\u6297\u5b87\u5b99\u300b(Phineas and Ferb The Movie: Candace Against the Universe\uff0c\u6682\u8bd1)\u3002\u8be5\u7247\u4e5f\u5c06\u72ec\u5bb6\u4e0a\u7ebfDisney+\u3002", "release_date": "2020-08-28", "popularity": 411.783, "adult": false, "backdrop_path": "/lkeBhXGJFRlhI7cBWn8LQQAdZqK.jpg", "genre_ids": [16, 878, 35, 10402, 10751, 12], "vote_count": 144, "original_language": "en", "original_title": "Phineas and Ferb The Movie: Candace Against the Universe", "poster_path": "/n6hptKS7Y0ZjkYwbqKOK3jz9XAC.jpg", "title": "\u98de\u54e5\u4e0e\u5c0f\u4f5b\u5927\u7535\u5f71\uff1a\u574e\u8fea\u65af\u5bf9\u6297\u5b87\u5b99", "video": false}, {"vote_average": 5.8, "id": 475430, "vote_count": 951, "release_date": "2020-06-12", "popularity": 352.668, "adult": false, "backdrop_path": "/o0F8xAt8YuEm5mEZviX5pEFC12y.jpg", "genre_ids": [12, 14, 878, 10751, 28], "poster_path": "/mhDdx7o7hhrxrikq8aqPLLnS9w8.jpg", "original_language": "en", "original_title": "Artemis Fowl", "title": "\u963f\u7279\u7c73\u65af\u7684\u5947\u5e7b\u5386\u9669", "overview": "\u3000\u300a\u963f\u7279\u7c73\u65af\u7684\u5947\u5e7b\u5386\u9669\u300b\uff08Artemis Fowl\uff09\u662f\u4e00\u5957\u7531\u7231\u5c14\u5170\u4f5c\u5bb6\u6b27\u56e0\u00b7\u79d1\u5f17\uff08Eoin Colfer\uff09\u6240\u5199\u7684\u5947\u5e7b\u5c0f\u8bf4\u7cfb\u5217\uff0c\u4e5f\u662f\u8fea\u58eb\u5c3c\u8fd1\u5e74\u6765\u51fa\u7248\u7684\u6700\u7545\u9500\u9752\u5c11\u5e74\u56fe\u4e66\u4e4b\u4e00\u3002\u4e3b\u89d2\u662f\u4e00\u4e2a\u5c11\u5e74\u7535\u8111\u5929\u624d\u3001\u5e74\u8f7b\u7684\u72af\u7f6a\u9996\u8111\u963f\u7279\u7c73\u65af\u00b7\u6cd5\u5c14\u4e8c\u4e16\uff08Artemis Fowl II\uff09\u3002\u6574\u4e2a\u7cfb\u5217\u662f\u7531\u534a\u4e25\u8083\u7684\u53e3\u543b\u4e66\u5199\uff0c\u9ed1\u6697\u4e2d\u5e26\u6709\u5e7d\u9ed8\u3002\u8fd9\u4e00\u7cfb\u5217\u5c0f\u8bf4\u4e0d\u4f46\u8d28\u91cf\u4e0a\u582a\u53ef\u6bd4\u80a9J\u00b7K\u00b7\u7f57\u7433\u7684\u300a\u54c8\u5229\u6ce2\u7279\u300b\u4ee5\u53ca\u7f57\u5c14\u5fb7\u00b7\u8fbe\u5c14\u7684\u300a\u5973\u5deb\u300b\u7b49\uff0c\u800c\u4e14\u88ab\u5f71\u89c6\u5708\u8ba4\u4e3a\u6709\u671b\u6210\u4e3a\u4e0b\u4e00\u4e2a\u201c\u54c8\u5229\u00b7\u6ce2\u7279\u201d\u7cfb\u5217\u3002", "video": false}, {"vote_average": 5.8, "id": 606234, "overview": "\u63d0\u5965\u00b7\u8a79\u59c6\u65af\u52a0\u76df[\u7edd\u5bc6\u6863\u6848](Archive\uff0c\u6682\u8bd1)\u3002\u8be5\u7247\u662f[\u6708\u7403]\u7684\u6982\u5ff5\u8bbe\u8ba1\u8005\u52a0\u6587\u00b7\u7f57\u745f\u91cc\u7684\u5bfc\u6f14\u5904\u5973\u4f5c\u3002\u6545\u4e8b\u8bbe\u7f6e\u5728\u8fd1\u672a\u6765\uff0c\u63d0\u5965\u9970\u6f14\u7684\u79d1\u5b66\u5bb6\uff0c\u521b\u9020\u51fa\u4e00\u6b3e\u4e0e\u4eba\u7c7b\u5341\u5206\u63a5\u8fd1\u7684\u673a\u5668\u4eba\uff0c\u4ed6\u7684\u79d1\u7814\u6210\u679c\u80cc\u540e\uff0c\u5374\u9690\u85cf\u7740\u4e0d\u53ef\u544a\u4eba\u7684\u76ee\u7684\u3002[\u6469\u5929\u5927\u697c]\u6444\u5f71\u5e08\u52b3\u91cc\u00b7\u7f57\u65af\u5c06\u4e3a\u672c\u7247\u638c\u955c\u3002", "release_date": "2020-08-13", "popularity": 323.946, "adult": false, "backdrop_path": "/u9YEh2xVAPVTKoaMNlB5tH6pXkm.jpg", "genre_ids": [878, 18, 14, 53], "vote_count": 190, "original_language": "en", "original_title": "Archive", "title": "\u7edd\u5bc6\u6863\u6848", "poster_path": "/hx0Ou2cUWArOw43ViKG5Mfin9hU.jpg", "video": false}, {"vote_average": 6.6, "id": 605116, "vote_count": 1612, "release_date": "2020-08-14", "popularity": 306.621, "adult": false, "backdrop_path": "/qVygtf2vU15L2yKS4Ke44U4oMdD.jpg", "genre_ids": [28, 80, 878], "poster_path": "/8WzCUUubdKtOlNw4WBV5gsdopw7.jpg", "original_language": "en", "original_title": "Project Power", "title": "\u8d85\u80fd\u8ba1\u5212", "overview": "\u5728\u65b0\u5965\u5c14\u826f\u7684\u8857\u9053\u4e0a\uff0c\u5173\u4e8e\u795e\u79d8\u65b0\u836f\u4e38\u7684\u6d88\u606f\u5f00\u59cb\u4f20\u64ad\u5f00\u6765\uff0c\u8fd9\u79cd\u836f\u4e38\u53ef\u4ee5\u89e3\u9501\u6bcf\u4f4d\u4f7f\u7528\u8005\u72ec\u7279\u7684\u8d85\u80fd\u529b\u3002\u4f46\u95ee\u9898\u662f\uff1a\u5728\u670d\u7528\u4e4b\u524d\uff0c\u6ca1\u4eba\u77e5\u9053\u7528\u836f\u540e\u4f1a\u53d1\u751f\u4ec0\u4e48\u3002\u4e00\u4e9b\u4eba\u4f1a\u8fdb\u5316\u51fa\u9632\u5f39\u76ae\u80a4\u3001\u9690\u5f62\u80fd\u529b\u548c\u8d85\u5f3a\u529b\u91cf\uff0c\u4e5f\u6709\u5f88\u591a\u4eba\u4f1a\u8868\u73b0\u51fa\u66f4\u81f4\u547d\u7684\u53cd\u5e94\u3002\u4f46\u662f\uff0c\u5f53\u836f\u4e38\u4f7f\u57ce\u5e02\u5185\u7684\u72af\u7f6a\u5347\u7ea7\u5230\u5371\u9669\u6c34\u5e73\u65f6\uff0c\u5f53\u5730\u8b66\u5bdf\uff08\u7ea6\u745f\u592b\u00b7\u9ad8\u767b-\u83b1\u7ef4\u7279\u9970\uff09\u4e0e\u4e00\u540d\u5c11\u5973\u5c0f\u8d29\uff08\u591a\u7c73\u5c3c\u514b\u00b7\u83f2\u4ec0\u5df4\u514b\u9970\uff09\u548c\u8a93\u62a5\u79c1\u4ec7\u7684\u9000\u4f0d\u58eb\u5175\uff08\u6770\u7c73\u00b7\u798f\u514b\u65af\u9970\uff09\u8054\u624b\u4ee5\u786c\u78b0\u786c\uff0c\u4ed6\u4eec\u5192\u7740\u670d\u7528\u836f\u4e38\u7684\u98ce\u9669\uff0c\u4ee5\u8ffd\u8e2a\u5e76\u5236\u6b62\u5236\u9020\u51fa\u8be5\u836f\u4e38\u7684\u56e2\u961f", "video": false}, {"vote_average": 5.9, "id": 722603, "vote_count": 80, "release_date": "2020-07-07", "popularity": 305.8, "adult": false, "backdrop_path": "/m7QpUAeI2xTCJyAVl9J9z5dBTSb.jpg", "genre_ids": [28, 27, 878], "poster_path": "/w6e0XZreiyW4mGlLRHEG8ipff7b.jpg", "original_language": "en", "original_title": "Battlefield 2025", "title": "\u6218\u5730\u98ce\u4e912025", "overview": "\u5f53\u6765\u81ea\u53e6\u4e00\u4e2a\u4e16\u754c\u7684\u654c\u5bf9\u8bbf\u5ba2\u964d\u843d\u5728\u4e9a\u5229\u6851\u90a3\u5dde\u7684\u4e00\u4e2a\u5c0f\u9547\u4e0a\u65f6\uff0c\u5468\u672b\u9732\u8425\u8005\uff0c\u9003\u8131\u7684\u7f6a\u72af\uff0c\u5e74\u8f7b\u7684\u604b\u4eba\u548c\u4e00\u540d\u8b66\u5b98\u7ecf\u5386\u4e86\u6050\u6016\u7684\u591c\u665a\u3002", "video": false}, {"vote_average": 7, "id": 514207, "overview": "\u81ea\u4ece\u4e00\u8258\u5916\u661f\u98de\u8239\u5728\u83ab\u65af\u79d1\u5207\u5c14\u5854\u8bfa\u592b\u5760\u843d\u4ee5\u6765\u5df2\u7ecf\u8fc7\u53bb\u4e863\u5e74\uff0c\u666e\u901a\u5973\u5b69\u6731\u8389\u5a05\u5728\u63a5\u89e6\u5230\u5916\u661f\u6280\u672f\u4e4b\u540e\uff0c\u6210\u4e3a\u56fd\u9632\u90e8\u79d8\u5bc6\u5b9e\u9a8c\u5ba4\u7684\u7814\u7a76\u5bf9\u8c61\u3002\u5728\u7814\u7a76\u8fc7\u7a0b\u4e2d\uff0c\u6731\u8389\u5a05\u8868\u73b0\u51fa\u4e0d\u540c\u5bfb\u5e38\u7684\u80fd\u529b\u3002\u9690\u85cf\u5728\u5176\u4e2d\u7684\u529b\u91cf\u4e0d\u4ec5\u5438\u5f15\u4e86\u4eba\u7c7b\u7684\u6ce8\u610f\uff0c\u800c\u4e14\u5bf9\u5b87\u5b99\u7684\u89c4\u6a21\u6784\u6210\u4e86\u5a01\u80c1\u3002", "release_date": "2020-01-01", "popularity": 293.076, "adult": false, "backdrop_path": "/sizHX5VbwlBihaathTQHVGk1jdi.jpg", "genre_ids": [878], "vote_count": 432, "original_language": "ru", "original_title": "\u0412\u0442\u043e\u0440\u0436\u0435\u043d\u0438\u0435", "poster_path": "/6jtIXRFgyCW9rrXaXhUEHfDPfSR.jpg", "title": "\u83ab\u65af\u79d1\u9677\u843d2", "video": false}, {"vote_average": 7.5, "id": 454626, "overview": "\u6539\u7f16\u81ea\u4e16\u5609\u516c\u53f8\u51fa\u54c1\u7684\u98ce\u9761\u5168\u7403\u7684\u7535\u5b50\u6e38\u620f\u3002\u7535\u5f71\u8bb2\u8ff0\u4e86\u62e5\u6709\u97f3\u901f\u5954\u8dd1\u80fd\u529b\u7684\u523a\u732c\u7d22\u5c3c\u514b\u5728\u5730\u7403\u4e0a\u5c55\u5f00\u65b0\u751f\u6d3b\u7684\u6545\u4e8b\u3002\u7d22\u5c3c\u514b\u548c\u4ed6\u7684\u65b0\u670b\u53cb\u6c64\u59c6\uff08\u8a79\u59c6\u65af\u00b7\u9ea6\u65af\u767b \u9970\uff09\u8054\u624b\u4fdd\u62a4\u5730\u7403\uff0c\u963b\u6b62\u90aa\u6076\u7684\u86cb\u5934\u535a\u58eb\uff08\u91d1\u00b7\u51ef\u745e \u9970\uff09\u7edf\u6cbb\u4e16\u754c\u7684\u8ba1\u5212\u3002\u8fd9\u90e8\u9002\u5408\u5168\u5bb6\u89c2\u770b\u7684\u7535\u5f71\u8fd8\u9080\u8bf7\u4e86\u8fea\u5361\u00b7\u6851\u666e\u7279\u53c2\u6f14\uff0c\u672c\u00b7\u65bd\u74e6\u8328\u4e3a\u7d22\u5c3c\u514b\u914d\u97f3\u3002", "release_date": "2020-02-12", "popularity": 265.376, "adult": false, "backdrop_path": "/stmYfCUGd8Iy6kAMBr6AmWqx8Bq.jpg", "genre_ids": [28, 878, 35, 10751], "vote_count": 6150, "original_language": "en", "original_title": "Sonic the Hedgehog", "poster_path": "/zLvFNWYRtmqGSvEG5VtKRmg2wTy.jpg", "title": "\u523a\u732c\u7d22\u5c3c\u514b", "video": false}, {"vote_average": 8.3, "id": 299536, "vote_count": 20232, "release_date": "2018-04-25", "popularity": 233.095, "adult": false, "backdrop_path": "/lmZFxXgJE3vgrciwuDib0N8CfQo.jpg", "genre_ids": [12, 28, 878], "title": "\u590d\u4ec7\u8005\u8054\u76df3\uff1a\u65e0\u9650\u6218\u4e89", "original_language": "en", "original_title": "Avengers: Infinity War", "poster_path": "/eQG5ohw6VrgprJ8UpEiMcHHBcAv.jpg", "overview": "\u6700\u5148\u4e0e\u706d\u9738\u519b\u56e2\u906d\u9047\u7684\u96f7\u795e\u7d22\u5c14\u4e00\u884c\u906d\u9047\u60e8\u70c8\u6253\u51fb\uff0c\u6d1b\u57fa\u9047\u5bb3\uff0c\u7a7a\u95f4\u5b9d\u77f3\u843d\u5165\u706d\u9738\u4e4b\u624b\u3002\u672a\u51e0\uff0c\u706d\u9738\u7684\u5148\u950b\u90e8\u961f\u6740\u81f3\u5730\u7403\uff0c\u4e00\u756a\u7f20\u6597\u540e\u63b3\u8d70\u5947\u5f02\u535a\u58eb\u3002\u4e3a\u963b\u6b62\u65f6\u95f4\u5b9d\u77f3\u843d\u5165\u654c\u624b\uff0c\u65af\u5854\u514b\u548c\u8718\u86db\u4fa0\u95ef\u5165\u4e86\u654c\u4eba\u7684\u98de\u8239\u3002\u4e0e\u6b64\u540c\u65f6\uff0c\u62e5\u6709\u5fc3\u7075\u5b9d\u77f3\u7684\u5e7b\u89c6\u4e5f\u906d\u5230\u5916\u661f\u4fb5\u7565\u8005\u7684\u88ad\u51fb\uff0c\u4e3a\u6b64\u7f8e\u56fd\u961f\u957f\u3001\u9ed1\u5be1\u5987\u7b49\u4eba\u5c06\u5176\u5e26\u5230\u74e6\u574e\u8fbe\u738b\u56fd\uff0c\u5411\u9ed1\u8c79\u6c42\u52a9\u3002\u5e78\u514d\u4e8e\u96be\u7684\u7d22\u5c14\u4e0e\u661f\u7235\u4e00\u884c\u76f8\u9022\uff0c\u968f\u540e\u4ed6\u4eec\u5175\u5206\u4e24\u8def\u3002\u7d22\u5c14\u4e0e\u706b\u7bad\u3001\u683c\u9c81\u7279\u8e0f\u4e0a\u518d\u94f8\u96f7\u795e\u4e4b\u9524\u7684\u65c5\u7a0b\uff0c\u661f\u7235\u5219\u4e0e\u5361\u9b54\u62c9\u7b49\u4eba\u8bd5\u56fe\u963b\u6b62\u706d\u9738\u7684\u6076\u884c\u3002\u800c\u77e5\u6653\u7075\u9b42\u5b9d\u77f3\u4e0b\u843d\u7684\u5361\u9b54\u62c9\uff0c\u540c\u6837\u662f\u5176\u4e49\u7236\u706d\u9738\u8ffd\u8e2a\u7684\u5bf9\u8c61\u3002  \u6538\u5173\u6574\u4e2a\u5b87\u5b99\u547d\u8fd0\u7684\u53f2\u8bd7\u6218\u5f79\u5168\u9762\u5c55\u5f00\uff0c\u8d85\u7ea7\u82f1\u96c4\u4eec\u4e3a\u4e86\u5e73\u51e1\u800c\u81ea\u7531\u7684\u751f\u547d\u594b\u4e0d\u987e\u8eab\u2026\u2026", "video": false}, {"vote_average": 6.5, "id": 594718, "overview": "\u82cf\u8054\uff0c1983\u5e74\u3002\u82cf\u8054\u5b87\u822a\u5458\u517c\u82f1\u96c4\u5eb7\u65af\u5766\u4e01\u00b7\u7ef4\u4ec0\u5c3c\u4e9a\u79d1\u592b\uff08Konstantin Veshnyakov\uff09\u5c06\u4e00\u4e2a\u5916\u661f\u751f\u7269\u5e26\u5165\u4e86\u81ea\u5df1\u7684\u8eab\u4f53\u3002\u5728\u4e00\u4e2a\u5c01\u95ed\u7684\u57ce\u5e02\u795e\u7ecf\u751f\u7406\u5b66\u5bb6\u5854\u8482\u626c\u5a1c\u00b7\u514b\u91cc\u83ab\u5a03\uff08Tatyana Klimova\uff09\u7684\u79d8\u5bc6\u5b9e\u9a8c\u5ba4\u4e2d\uff0c\u5979\u8bd5\u56fe\u4ece\u5b87\u822a\u5458\u4e2d\u89e3\u6551\u5b87\u822a\u5458\u65f6\uff0c\u53d1\u73b0\u5979\u5bf9\u60a3\u8005\u7684\u611f\u89c9\u8fdc\u4e0d\u6b62\u662f\u4e13\u4e1a\u5174\u8da3", "release_date": "2020-09-10", "popularity": 233.076, "adult": false, "backdrop_path": "/j9uiJPliO5q6xeBO1Buaeqs2qr0.jpg", "genre_ids": [878, 18, 27], "title": "\u5bc4\u751f\u5f02\u5f62", "original_language": "ru", "original_title": "Sputnik", "poster_path": "/85F5yZIYWgheQFytYF3B7meqq8O.jpg", "vote_count": 61, "video": false}, {"vote_average": 0, "id": 283566, "vote_count": 0, "release_date": "2021-01-23", "popularity": 220.198, "adult": false, "backdrop_path": "/cdav7lVUviYvQwKB2v73PpaJMFV.jpg", "genre_ids": [28, 16, 18, 878], "poster_path": "/n15reqf2NvUq13mSUOeYftMnBd1.jpg", "original_language": "ja", "original_title": "\u30b7\u30f3\u30fb\u30a8\u30f4\u30a1\u30f3\u30b2\u30ea\u30aa\u30f3\u5287\u5834\u7248:||", "title": "\u65b0\u4e16\u7eaa\u798f\u97f3\u6218\u58eb\u65b0\u5267\u573a\u7248\uff1a\u7ec8", "overview": "", "video": false}, {"vote_average": 6.9, "id": 338762, "overview": "\u7535\u5f71\u6839\u636e\u52c7\u58eb\u6f2b\u753b\u6539\u7f16\uff0c\u8bb2\u8ff0\u7531\u8303\u00b7\u8fea\u585e\u5c14\u626e\u6f14\u7684\u58eb\u5175\u96f7\u00b7\u52a0\u91cc\u68ee\u5728\u6218\u6597\u4e2d\u610f\u5916\u9635\u4ea1\uff0c\u88abRST\u516c\u53f8\u5229\u7528\u5c16\u7aef\u7eb3\u7c73\u6280\u672f\u8d77\u6b7b\u56de\u751f\uff0c\u53d8\u8eab\u5373\u65f6\u81ea\u6108\u3001\u5ab2\u7f8e\u8d85\u7ea7\u7535\u8111\u7684\u8d85\u7ea7\u82f1\u96c4\u2014\u2014\u558b\u8840\u6218\u58eb\u3002\u82cf\u9192\u7684\u4ed6\u6267\u7740\u4e8e\u8111\u6d77\u4e2d\u6b8b\u5b58\u7684\u8bb0\u5fc6\u788e\u7247\uff0c\u8e0f\u4e0a\u4e3a\u7231\u59bb\u7684\u590d\u4ec7\u4e4b\u8def\uff0c\u5374\u53d1\u73b0\u81ea\u5df1\u7adf\u65e0\u6cd5\u5206\u6e05\u771f\u5b9e\u4e0e\u865a\u5e7b...", "release_date": "2020-03-05", "popularity": 211.802, "adult": false, "backdrop_path": "/lP5eKh8WOcPysfELrUpGhHJGZEH.jpg", "genre_ids": [28, 878], "vote_count": 3342, "original_language": "en", "original_title": "Bloodshot", "poster_path": "/pEAfW2OfXwSUUZ5B1Pu7BqG1DZ3.jpg", "title": "\u558b\u8840\u6218\u58eb", "video": false}, {"vote_average": 7.6, "id": 590223, "overview": "\u3000\u3000\u5f71\u7247\u636e\u79f0\u98ce\u683c\u7ed3\u5408\u300a\u50f5\u5c38\u4e4b\u5730\u300b\u548c\u7ea6\u7ff0\u00b7\u4fee\u65af\u7684\u9752\u5c11\u5e74\u7535\u5f71\uff0c\u8bb2\u8ff0\u4e00\u573a\u201c\u602a\u7269\u672b\u65e5\u201d\u8feb\u4f7f\u6240\u6709\u4eba\u7c7b\u8f6c\u5230\u5730\u4e0b\u6b96\u6c11\u5730\u5c45\u4f4f\uff0c\u6b64\u4e8b\u4ef67\u5e74\u540e\uff0c\u7537\u4e3bJoel Dawson(\u5965\u5e03\u83b1\u6069)\u76ee\u7779\u8eab\u8fb9\u7684\u5e78\u5b58\u8005\u4eec\u90fd\u6210\u53cc\u6210\u5bf9\u4e86\uff0c\u4ed6\u4e5f\u60f3\u548c\u81ea\u5df1\u7684\u68a6\u4e2d\u5973\u5b69Aimee(\u4ea8\u7ef4\u514b)\u5728\u4e00\u8d77\u3002\u4e3a\u6b64\uff0cDawson\u52c7\u6562\u5730\u53bb\u5230\u5730\u8868\uff0c\u5e76\u548c\u4e00\u53ea\u82f1\u52c7\u7684\u72d7\u72d7\u53ca\u4e24\u4e2a\u4eba(\u9c81\u514b\u548cGreenblatt)\u6210\u4e86\u961f\u53cb\uff0c\u5728\u4ed6\u4eec\u7684\u5e2e\u52a9\u4e0b\uff0cDawson\u8981\u52aa\u529b\u7a7f\u8d8a\u602a\u517d\u6a2a\u884c\u7684\u540e\u672b\u4e16\uff0c\u5bfb\u627e\u771f\u7231\u3002", "release_date": "2020-10-16", "popularity": 215.34, "adult": false, "backdrop_path": "/lA5fOBqTOQBQ1s9lEYYPmNXoYLi.jpg", "genre_ids": [28, 12, 35, 878], "vote_count": 404, "original_language": "en", "original_title": "Love and Monsters", "poster_path": "/r4Lm1XKP0VsTgHX4LG4syAwYA2I.jpg", "title": "\u7231\u4e0e\u602a\u7269", "video": false}, {"vote_average": 8.3, "id": 299534, "overview": "\u4e00\u58f0\u54cd\u6307\uff0c\u5b87\u5b99\u95f4\u534a\u6570\u751f\u547d\u7070\u98de\u70df\u706d\u3002\u51e0\u8fd1\u7edd\u671b\u7684\u590d\u4ec7\u8005\u4eec\u5728\u60ca\u5947\u961f\u957f\uff08\u5e03\u4e3d\u00b7\u62c9\u5c14\u68ee Brie Larson \u9970\uff09\u7684\u5e2e\u52a9\u4e0b\u627e\u5230\u706d\u9738\uff08\u4e54\u4ec0\u00b7\u5e03\u6d1b\u6797 Josh Brolin \u9970\uff09\u5f52\u9690\u4e4b\u5904\uff0c\u5374\u5f97\u77e5\u516d\u9897\u65e0\u9650\u5b9d\u77f3\u5747\u88ab\u9500\u6bc1\uff0c\u5e0c\u671b\u5f7b\u5e95\u7834\u706d\u3002\u5982\u662f\u8fc7\u4e86\u4e94\u5e74\uff0c\u8ff7\u5931\u5728\u91cf\u5b50\u9886\u57df\u7684\u8681\u4eba\uff08\u4fdd\u7f57\u00b7\u8def\u5fb7 Paul Rudd \u9970\uff09\u610f\u5916\u56de\u5230\u73b0\u5b9e\u4e16\u754c\uff0c\u4ed6\u7684\u51fa\u73b0\u4e3a\u5e78\u5b58\u7684\u590d\u4ec7\u8005\u4eec\u70b9\u71c3\u4e86\u5e0c\u671b\u3002\u4e0e\u7f8e\u56fd\u961f\u957f\uff08\u514b\u91cc\u65af\u00b7\u57c3\u6587\u65af Chris Evans \u9970\uff09\u51b0\u91ca\u524d\u5acc\u7684\u6258\u5c3c\uff08\u5c0f\u7f57\u4f2f\u7279\u00b7\u5510\u5c3c Robert Downey Jr. \u9970\uff09\u627e\u5230\u4e86\u7a7f\u8d8a\u65f6\u7a7a\u7684\u65b9\u6cd5\uff0c\u661f\u6563\u5404\u5730\u7684\u8d85\u7ea7\u82f1\u96c4\u518d\u5ea6\u96c6\u7ed3\uff0c\u4ed6\u4eec\u5206\u522b\u7a7f\u8d8a\u4e0d\u540c\u7684\u65f6\u4ee3\u53bb\u641c\u96c6\u65e0\u9650\u5b9d\u77f3\u3002\u800c\u5728\u8fd9\u4e00\u8fc7\u7a0b\u4e2d\uff0c\u5e73\u884c\u5b87\u5b99\u7684\u706d\u9738\u5bdf\u89c9\u4e86\u4ed6\u4eec\u7684\u8ba1\u5212\u3002  \u6ce8\u5b9a\u8981\u8f7d\u5165\u53f2\u518c\u7684\u6700\u7ec8\u51b3\u6218\uff0c\u8d85\u7ea7\u82f1\u96c4\u4eec\u4e3a\u4e86\u5fc3\u4e2d\u606a\u5b88\u7684\u4fe1\u5ff5\u524d\u4ec6\u540e\u7ee7\u2026\u2026", "release_date": "2019-04-24", "popularity": 191.18, "adult": false, "backdrop_path": "/7RyHsO4yDXtBv1zUU3mTpHeQ0d5.jpg", "genre_ids": [12, 878, 28], "vote_count": 15778, "original_language": "en", "original_title": "Avengers: Endgame", "poster_path": "/efPM8aU1UxuWQcjzq7sGbzePEF5.jpg", "title": "\u590d\u4ec7\u8005\u8054\u76df4\uff1a\u7ec8\u5c40\u4e4b\u6218", "video": false}, {"vote_average": 5.1, "id": 713825, "vote_count": 6, "release_date": "2020-06-12", "popularity": 191.155, "adult": false, "backdrop_path": "/7r8d5DxzRpC9iq2idNTOa3UyNOw.jpg", "genre_ids": [28, 878], "poster_path": "/pXv4qbWyj6ycMaWkK2LzlizZQjf.jpg", "original_language": "en", "original_title": "Robot Riot", "title": "\u673a\u5668\u4eba\u66b4\u52a8", "overview": "\u5f53\u58eb\u5175\u5728\u6218\u4e89\u4e2d\u5931\u53bb\u610f\u8bc6\u540e\u4f1a\u88ab\u6254\u8fdb\u4e00\u4e2a\u8bd5\u9a8c\u573a\uff0c\u5f53\u4ed6\u4eec\u82cf\u9192\u540e\u53d1\u73b0\u6240\u6709\u7684\u8bb0\u5fc6\u5df2\u7ecf\u88ab\u81ea\u52a8\u62b9\u53bb\uff0c\u8bd5\u9a8c\u573a\u5185\u5b58\u653e\u4e86\u5f88\u591a\u673a\u5668\u4eba\uff0c\u66fe\u7ecf\u6e29\u987a\u7684\u673a\u5668\u6b63\u5728\u8f6c\u53d8...", "video": false}, {"vote_average": 6.7, "id": 335983, "overview": "\u827e\u8fea\uff08\u6c64\u59c6\u00b7\u54c8\u8fea Tom Hardy \u9970\uff09\u662f\u4e00\u4f4d\u6df1\u53d7\u89c2\u4f17\u559c\u7231\u7684\u65b0\u95fb\u8bb0\u8005\uff0c\u548c\u5973\u53cb\u5b89\u59ae\uff08\u7c73\u6b47\u5c14\u00b7\u5a01\u5ec9\u59c6\u65af Michelle Williams \u9970\uff09\u76f8\u604b\u591a\u5e74\uff0c\u5f7c\u6b64\u4e4b\u95f4\u611f\u60c5\u5341\u5206\u8981\u597d\u3002\u5b89\u59ae\u662f\u4e00\u540d\u5f8b\u5e08\uff0c\u63a5\u624b\u4e86\u751f\u547d\u57fa\u91d1\u4f1a\u7684\u6848\u4ef6\uff0c\u5728\u5973\u53cb\u7684\u90ae\u7bb1\u91cc\uff0c\u827e\u8fea\u53d1\u73b0\u4e86\u57fa\u91d1\u4f1a\u8001\u677f\u5fb7\u96f7\u514b\uff08\u91cc\u5179\u00b7\u963f\u8fc8\u5fb7 Riz Ahmed \u9970\uff09\u4e0d\u4e3a\u4eba\u77e5\u7684\u79d8\u5bc6\u3002\u4e3a\u6b64\uff0c\u827e\u8fea\u4e0d\u4ec5\u4e22\u4e86\u5de5\u4f5c\uff0c\u5973\u53cb\u4e5f\u79bb\u4ed6\u800c\u53bb\u3002  \u4e4b\u540e\uff0c\u751f\u547d\u57fa\u91d1\u4f1a\u7684\u6735\u62c9\u535a\u58eb\uff08\u73cd\u59ae\u00b7\u65af\u857e\u7279 Jenny Slate \u9970\uff09\u627e\u5230\u4e86\u827e\u8fea\uff0c\u5e0c\u671b\u827e\u8fea\u80fd\u591f\u5e2e\u52a9\u5979\u963b\u6b62\u5fb7\u96f7\u514b\u75af\u72c2\u7684\u7f6a\u884c\u3002\u5728\u751f\u547d\u57fa\u91d1\u4f1a\u7684\u5b9e\u9a8c\u5ba4\u91cc\uff0c\u827e\u8fea\u53d1\u73b0\u4e86\u5fb7\u96f7\u514b\u8fdb\u884c\u4eba\u4f53\u5b9e\u9a8c\u7684\u8bc1\u636e\uff0c\u5e76\u4e14\u5728\u8bef\u6253\u8bef\u649e\u4e4b\u4e2d\u88ab\u5916\u661f\u751f\u547d\u4f53\u6bd2\u6db2\u9644\u8eab\u3002\u56de\u5230\u5bb6\u540e\uff0c\u827e\u8fea\u548c\u6bd2\u6db2\u4e4b\u95f4\u5f62\u6210\u4e86\u5171\u751f\u5173\u7cfb\uff0c\u4ed6\u4eec\u8981\u5e94\u5bf9\u7684\u662f\u5fb7\u96f7\u514b\u6d3e\u51fa\u7684\u4e00\u6ce2\u53c8\u4e00\u6ce2\u6740\u624b\u3002", "release_date": "2018-09-28", "popularity": 184.748, "adult": false, "backdrop_path": "/VuukZLgaCrho2Ar8Scl9HtV3yD.jpg", "genre_ids": [878, 28], "vote_count": 9873, "original_language": "en", "original_title": "Venom", "poster_path": "/o89s4hH8ikimyrSfjc2GwLYP6Sw.jpg", "title": "\u6bd2\u6db2\uff1a\u81f4\u547d\u5b88\u62a4\u8005", "video": false}, {"vote_average": 7.5, "id": 429617, "overview": "\u5728\u590d\u4ec7\u8005\u8054\u76df\u4f17\u82f1\u96c4\u7684\u52aa\u529b\u4e0b\uff0c\u4e8e\u706d\u9738\u65e0\u9650\u624b\u5957\u4e8b\u4ef6\u4e2d\u5316\u4f5c\u4e3a\u7070\u70ec\u7684\u4eba\u4eec\uff0c\u91cd\u65b0\u56de\u5230\u4e86\u4eba\u4e16\u95f4\uff0c\u66fe\u7ecf\u6d88\u5931\u7684\u8718\u86db\u4fa0 \u5f7c\u5f97\u5e15\u514b \u4e5f\u56de\u5f52\u5230\u4e86\u666e\u901a\u7684\u751f\u6d3b\u4e4b\u4e2d\uff0c\u6570\u6708\u540e\uff0c\u8718\u86db\u4fa0\u5f7c\u5f97\u5e15\u514b\u6240\u5728\u7684\u5b66\u6821\u4e3e\u884c\u4e86\u6b27\u6d32\u65c5\u6e38\uff0c\u5e15\u514b\u4e5f\u5728\u5176\u4e2d\uff0c \u5728\u6b27\u5dde\u5a01\u5c3c\u65af\u65c5\u884c\u65f6\uff0c\u4e00\u4e2a\u5de8\u5927\u65e0\u6bd4\u7684\u6c34\u602a\u88ad\u51fb\u4e86\u5a01\u5c3c\u65af\uff0c\u4e0d\u654c\u654c\u4eba\u7684\u8718\u86db\u4fa0\u5e78\u5f97\u4e00\u4f4d\u81ea\u79f0\u795e\u79d8\u5ba2\u7684\u7537\u5b50\u642d\u6551\u624d\u51fb\u9000\u654c\u4eba\uff0c\u4e4b\u540e \u795e\u76fe\u5c40\u5c40\u957f\u627e\u4e0a\u6b63\u5728\u65c5\u6e38\u7684\u5f7c\u5f97\u5e15\u514b\u5e76\u8981\u6c42\u5176\u52a0\u5165\u795e\u76fe\u5c40\uff0c\u5e76\u5b89\u6392\u795e\u79d8\u5ba2\u534f\u52a9\u5e15\u514b\uff0c\u795e\u79d8\u5ba2\u81ea\u79f0\u6765\u81ea\u5176\u4ed6\u5b87\u5b99\uff0c\u5e76\u544a\u77e5\u4e00\u7fa4\u540d\u4e3a\u5143\u7d20\u4f17\u7684\u90aa\u6076\u52bf\u529b\u5df2\u7ecf\u5165\u4fb5\u8fd9\u4e2a\u5b87\u5b99\u4e86\uff0c\u4e3a\u4e86\u5b88\u62a4\u6765\u4e4b\u4e0d\u6613\u7684\u548c\u5e73\uff0c\u8718\u86db\u4fa0\u51b3\u5b9a\u4e0e\u795e\u79d8\u5ba2\u8054\u624b\uff0c\u7136\u800c\u5728\u795e\u79d8\u5ba2\u90a3\u5934\u7f69\u4e4b\u4e2d\uff0c\u4f3c\u4e4e\u9690\u85cf\u7740\u4ec0\u4e48\u4e0d\u4e3a\u4eba\u77e5\u7684\u771f\u76f8\u2026\u2026", "release_date": "2019-06-28", "popularity": 171.645, "adult": false, "backdrop_path": "/5myQbDzw3l8K9yofUXRJ4UTVgam.jpg", "genre_ids": [28, 12, 878], "vote_count": 8737, "original_language": "en", "original_title": "Spider-Man: Far from Home", "poster_path": "/wXphuSSQBQ5Vd3I4YYA9ef5tulf.jpg", "title": "\u8718\u86db\u4fa0\uff1a\u82f1\u96c4\u8fdc\u5f81", "video": false}, {"vote_average": 8.4, "id": 324857, "vote_count": 8421, "release_date": "2018-12-06", "popularity": 186.015, "adult": false, "backdrop_path": "/aUVCJ0HkcJIBrTJYPnTXta8h9Co.jpg", "genre_ids": [28, 12, 16, 878, 35], "poster_path": "/gvMD9c04fWqXlJ39IX6H2jipQqg.jpg", "original_language": "en", "original_title": "Spider-Man: Into the Spider-Verse", "title": "\u8718\u86db\u4fa0\uff1a\u5e73\u884c\u5b87\u5b99", "overview": "\u8718\u86db\u4fa0\u4e0d\u6b62\u4e00\u4e2a\uff01\u6f2b\u5a01\u8d85\u82f1\u52a8\u753b\u5de8\u5236\u300a\u8718\u86db\u4fa0\uff1a\u5e73\u884c\u5b87\u5b99\u300b\u5c06\u7ecf\u5178\u6f2b\u753b\u4e0eCGI\u6280\u672f\u5b8c\u7f8e\u5448\u73b0\uff0c\u8bb2\u8ff0\u4e86\u666e\u901a\u9ad8\u4e2d\u751f\u8fc8\u5c14\u65af\u00b7\u83ab\u62c9\u65af\u5982\u4f55\u5e08\u4ece\u8718\u86db\u4fa0\u5f7c\u5f97\u00b7\u5e15\u514b\uff0c\u6210\u957f\u4e3a\u65b0\u4e00\u4ee3\u8d85\u7ea7\u82f1\u96c4\u7684\u6545\u4e8b\u3002\u5f71\u7247\u4e2d\u8fc8\u5c14\u65af\u548c\u4ece\u5176\u5b83\u5e73\u884c\u5b87\u5b99\u4e2d\u7a7f\u8d8a\u800c\u6765\u7684\u5f7c\u5f97\u3001\u5973\u8718\u86db\u4fa0\u683c\u6e29\u3001\u6697\u5f71\u8718\u86db\u4fa0\u3001\u6f58\u59ae\u00b7\u5e15\u514b\u548c\u8718\u732a\u4fa0\u96c6\u7ed3\u6210\u56e2\uff0c\u516d\u4f4d\u8718\u86db\u4fa0\u9996\u6b21\u540c\u6846\u5927\u94f6\u5e55\uff0c\u5bf9\u6297\u8718\u86db\u4fa0\u5b87\u5b99\u6700\u5f3a\u53cd\u6d3e\u3002", "video": false}, {"vote_average": 6.6, "id": 181812, "vote_count": 5944, "release_date": "2019-12-18", "popularity": 163.878, "adult": false, "backdrop_path": "/SPkEiZGxq5aHWQ2Zw7AITwSEo2.jpg", "genre_ids": [28, 12, 878], "poster_path": "/tQ5gSCS4h1QygtDnwCoOYi3YIva.jpg", "original_language": "en", "original_title": "Star Wars: The Rise of Skywalker", "title": "\u661f\u7403\u5927\u62189\uff1a\u5929\u884c\u8005\u5d1b\u8d77", "overview": "\u3000\u3000\u5728\u300a\u661f\u7403\u5927\u62188\u300b\u7684\u6545\u4e8b\u7ed3\u675f\u540e\uff0c\u540e\u4f20\u4e09\u90e8\u66f2\u7ec8\u4e8e\u8fce\u6765\u4e86\u9ad8\u6f6e\u3002\u5362\u514b\u00b7\u5929\u884c\u8005\u5316\u4e3a\u7edd\u5730\u82f1\u7075\u7684\u4e00\u5e74\u540e\uff0c\u6b8b\u5b58\u7684\u62b5\u6297\u52bf\u529b\u5c06\u518d\u6b21\u9762\u5bf9\u7b2c\u4e00\u79e9\u5e8f\u3002\u540c\u65f6\uff0c\u7edd\u5730\u548c\u897f\u65af\u4e4b\u95f4\u7684\u5927\u6218\u5c06\u5929\u884c\u8005\u7684\u4f20\u5947\u5e26\u5230\u6700\u540e\u3002", "video": false}]}}